"",".","id"
"1","Delhi","1"
"2","Mumbai","12"
"3","Bangalore","20"
"4","Chennai","32"
"5","Hyderabad","38"
"6","Pune","19"
"7","Kolkata","25"
"8","Ahmedabad","45"
"9","Chandigarh","73"
"10","Jaipur","177"
"11","Nagpur","150"
"12","Bhubaneswar","162"
"13","Coimbatore","185"
"14","Goa","233"
"15","Indore","142"
"16","Kerala","238"
"17","Lucknow","205"
"18","Surat","95"
"19","Vadodara","96"
"20","Dehradun","211"
"21","Patna","71"
"22","Nasik","151"
"23","Bhopal","140"
"24","Visakhapatnam","62"
"25","Kanpur","204"
"26","Varanasi","209"
"27","Vijayawada","61"
"28","Mysore","126"
"29","Ranchi","117"
"30","Raipur","75"
"31","Mangalore","125"
"32","Vapi","381"
"33","Rajkot","94"
"34","Trichy","192"
"35","Madurai","188"
"36","Hubli","123"
"37","Allahabad","199"
"38","Pondicherry","168"
"39","Agra","197"
"40","Ludhiana","171"
"41","Amritsar","169"
"42","Jalandhar","170"
"43","Udaipur","181"
"44","Jodhpur","179"
"45","Gwalior","141"
"46","Jabalpur","143"
"47","Aurangabad","147"
